<?xml version="1.0" standalone="no"?>
<!DOCTYPE svg PUBLIC "-//W3C//DTD SVG 20010904//EN"
 "http://www.w3.org/TR/2001/REC-SVG-20010904/DTD/svg10.dtd">
<svg version="1.0" xmlns="http://www.w3.org/2000/svg"
 width="300.000000pt" height="300.000000pt" viewBox="0 0 300.000000 300.000000"
 preserveAspectRatio="xMidYMid meet">
<metadata>
Created by potrace 1.11, written by Peter Selinger 2001-2013
</metadata>
<g transform="translate(0.000000,300.000000) scale(0.100000,-0.100000)"
fill="#000000" stroke="none">
<path d="M1480 2612 c-338 -23 -588 -218 -646 -504 -16 -75 -17 -98 -6 -169
15 -105 54 -188 123 -263 91 -100 214 -177 450 -284 257 -116 380 -206 436
-320 25 -51 28 -68 28 -152 -1 -78 -5 -103 -24 -143 -72 -147 -235 -237 -430
-237 -168 0 -357 64 -413 140 -15 21 -36 91 -72 243 -6 25 -10 27 -56 27 l-50
0 0 -229 0 -230 32 -15 c49 -25 201 -64 313 -81 254 -38 502 0 693 106 322
178 431 612 223 889 -82 108 -213 196 -469 314 -300 137 -407 210 -458 312
-30 61 -27 203 6 267 95 187 412 238 667 109 56 -29 90 -73 109 -140 9 -31 23
-84 33 -116 l17 -59 39 0 40 0 3 220 2 220 -37 16 c-127 53 -386 91 -553 79z"/>
</g>
</svg>
